demo_03_consecutive/engine_0/trace.vcd
$version Generated by Yosys-SMTBMC $end
$timescale 1ns $end
$var integer 32 t smt_step $end
$var event 1 ! smt_clock $end
$scope module demo_03_consecutive $end
$var wire 1 n0 a $end
$var wire 1 n1 b $end
$var wire 1 n2 c $end
$var wire 1 n3 clock $end
$var wire 1 n4 reset $end
$scope module seq_a $end
$var wire 8 n5 ch $end
$var wire 1 n6 clock $end
$var wire 32 n7 cycle $end
$var wire 4 n8 dout $end
$var wire 29 n9 position $end
$upscope $end
$scope module seq_b $end
$var wire 8 n10 ch $end
$var wire 1 n11 clock $end
$var wire 32 n12 cycle $end
$var wire 4 n13 dout $end
$var wire 29 n14 position $end
$upscope $end
$scope module seq_c $end
$var wire 8 n15 ch $end
$var wire 1 n16 clock $end
$var wire 32 n17 cycle $end
$var wire 4 n18 dout $end
$var wire 29 n19 position $end
$upscope $end
$scope module seq_r $end
$var wire 8 n20 ch $end
$var wire 1 n21 clock $end
$var wire 32 n22 cycle $end
$var wire 4 n23 dout $end
$var wire 29 n24 position $end
$upscope $end
$upscope $end
$enddefinitions $end
#0
1!
b00000000000000000000000000000000 t
b1 n3
b1 n6
b1 n11
b1 n16
b1 n21
b0 n0
b0 n1
b0 n2
b1 n4
b01011111 n5
b00000000000000000000000000000000 n7
b0000 n8
b00000000000000000000000010011 n9
b01011111 n10
b00000000000000000000000000000000 n12
b0000 n13
b00000000000000000000000010011 n14
b01011111 n15
b00000000000000000000000000000000 n17
b0000 n18
b00000000000000000000000010011 n19
b00101101 n20
b00000000000000000000000000000000 n22
b1111 n23
b00000000000000000000000010011 n24
#5
b0 n3
b0 n6
b0 n11
b0 n16
b0 n21
#10
1!
b00000000000000000000000000000001 t
b1 n3
b1 n6
b1 n11
b1 n16
b1 n21
b1 n0
b0 n1
b0 n2
b0 n4
b00101101 n5
b00000000000000000000000000000001 n7
b1111 n8
b00000000000000000000000010010 n9
b01011111 n10
b00000000000000000000000000000001 n12
b0000 n13
b00000000000000000000000010010 n14
b01011111 n15
b00000000000000000000000000000001 n17
b0000 n18
b00000000000000000000000010010 n19
b01011111 n20
b00000000000000000000000000000001 n22
b0000 n23
b00000000000000000000000010010 n24
#15
b0 n3
b0 n6
b0 n11
b0 n16
b0 n21
#20
1!
b00000000000000000000000000000010 t
b1 n3
b1 n6
b1 n11
b1 n16
b1 n21
b0 n0
b1 n1
b0 n2
b0 n4
b01011111 n5
b00000000000000000000000000000010 n7
b0000 n8
b00000000000000000000000010001 n9
b00101101 n10
b00000000000000000000000000000010 n12
b1111 n13
b00000000000000000000000010001 n14
b01011111 n15
b00000000000000000000000000000010 n17
b0000 n18
b00000000000000000000000010001 n19
b01011111 n20
b00000000000000000000000000000010 n22
b0000 n23
b00000000000000000000000010001 n24
#25
b0 n3
b0 n6
b0 n11
b0 n16
b0 n21
#30
1!
b00000000000000000000000000000011 t
b1 n3
b1 n6
b1 n11
b1 n16
b1 n21
b0 n0
b1 n1
b0 n2
b0 n4
b01011111 n5
b00000000000000000000000000000011 n7
b0000 n8
b00000000000000000000000010000 n9
b00101101 n10
b00000000000000000000000000000011 n12
b1111 n13
b00000000000000000000000010000 n14
b01011111 n15
b00000000000000000000000000000011 n17
b0000 n18
b00000000000000000000000010000 n19
b01011111 n20
b00000000000000000000000000000011 n22
b0000 n23
b00000000000000000000000010000 n24
#35
b0 n3
b0 n6
b0 n11
b0 n16
b0 n21
#40
1!
b00000000000000000000000000000100 t
b1 n3
b1 n6
b1 n11
b1 n16
b1 n21
b0 n0
b0 n1
b1 n2
b0 n4
b01011111 n5
b00000000000000000000000000000100 n7
b0000 n8
b00000000000000000000000001111 n9
b01011111 n10
b00000000000000000000000000000100 n12
b0000 n13
b00000000000000000000000001111 n14
b00101101 n15
b00000000000000000000000000000100 n17
b1111 n18
b00000000000000000000000001111 n19
b01011111 n20
b00000000000000000000000000000100 n22
b0000 n23
b00000000000000000000000001111 n24
#45
b0 n3
b0 n6
b0 n11
b0 n16
b0 n21
#50
1!
b00000000000000000000000000000101 t
b1 n3
b1 n6
b1 n11
b1 n16
b1 n21
b0 n0
b0 n1
b0 n2
b0 n4
b01011111 n5
b00000000000000000000000000000101 n7
b0000 n8
b00000000000000000000000001110 n9
b01011111 n10
b00000000000000000000000000000101 n12
b0000 n13
b00000000000000000000000001110 n14
b01011111 n15
b00000000000000000000000000000101 n17
b0000 n18
b00000000000000000000000001110 n19
b01011111 n20
b00000000000000000000000000000101 n22
b0000 n23
b00000000000000000000000001110 n24
#55
b0 n3
b0 n6
b0 n11
b0 n16
b0 n21
#60
1!
b00000000000000000000000000000110 t
b1 n3
b1 n6
b1 n11
b1 n16
b1 n21
b1 n0
b0 n1
b0 n2
b0 n4
b00101101 n5
b00000000000000000000000000000110 n7
b1111 n8
b00000000000000000000000001101 n9
b01011111 n10
b00000000000000000000000000000110 n12
b0000 n13
b00000000000000000000000001101 n14
b01011111 n15
b00000000000000000000000000000110 n17
b0000 n18
b00000000000000000000000001101 n19
b01011111 n20
b00000000000000000000000000000110 n22
b0000 n23
b00000000000000000000000001101 n24
#65
b0 n3
b0 n6
b0 n11
b0 n16
b0 n21
#70
1!
b00000000000000000000000000000111 t
b1 n3
b1 n6
b1 n11
b1 n16
b1 n21
b0 n0
b1 n1
b0 n2
b0 n4
b01011111 n5
b00000000000000000000000000000111 n7
b0000 n8
b00000000000000000000000001100 n9
b00101101 n10
b00000000000000000000000000000111 n12
b1111 n13
b00000000000000000000000001100 n14
b01011111 n15
b00000000000000000000000000000111 n17
b0000 n18
b00000000000000000000000001100 n19
b01011111 n20
b00000000000000000000000000000111 n22
b0000 n23
b00000000000000000000000001100 n24
#75
b0 n3
b0 n6
b0 n11
b0 n16
b0 n21
#80
1!
b00000000000000000000000000001000 t
b1 n3
b1 n6
b1 n11
b1 n16
b1 n21
b0 n0
b0 n1
b0 n2
b1 n4
b01011111 n5
b00000000000000000000000000001000 n7
b0000 n8
b00000000000000000000000001011 n9
b01011111 n10
b00000000000000000000000000001000 n12
b0000 n13
b00000000000000000000000001011 n14
b01011111 n15
b00000000000000000000000000001000 n17
b0000 n18
b00000000000000000000000001011 n19
b00101101 n20
b00000000000000000000000000001000 n22
b1111 n23
b00000000000000000000000001011 n24
#85
b0 n3
b0 n6
b0 n11
b0 n16
b0 n21
#90
1!
b00000000000000000000000000001001 t
b1 n3
b1 n6
b1 n11
b1 n16
b1 n21
b0 n0
b0 n1
b0 n2
b0 n4
b01011111 n5
b00000000000000000000000000001001 n7
b0000 n8
b00000000000000000000000001010 n9
b01011111 n10
b00000000000000000000000000001001 n12
b0000 n13
b00000000000000000000000001010 n14
b01011111 n15
b00000000000000000000000000001001 n17
b0000 n18
b00000000000000000000000001010 n19
b01011111 n20
b00000000000000000000000000001001 n22
b0000 n23
b00000000000000000000000001010 n24
#95
b0 n3
b0 n6
b0 n11
b0 n16
b0 n21
#100
1!
b00000000000000000000000000001010 t
b1 n3
b1 n6
b1 n11
b1 n16
b1 n21
b0 n0
b0 n1
b0 n2
b0 n4
b01011111 n5
b00000000000000000000000000001010 n7
b0000 n8
b00000000000000000000000001001 n9
b01011111 n10
b00000000000000000000000000001010 n12
b0000 n13
b00000000000000000000000001001 n14
b01011111 n15
b00000000000000000000000000001010 n17
b0000 n18
b00000000000000000000000001001 n19
b01011111 n20
b00000000000000000000000000001010 n22
b0000 n23
b00000000000000000000000001001 n24
#105
b0 n3
b0 n6
b0 n11
b0 n16
b0 n21
#110
1!
b00000000000000000000000000001011 t
b1 n3
b1 n6
b1 n11
b1 n16
b1 n21
b1 n0
b0 n1
b0 n2
b0 n4
b00101101 n5
b00000000000000000000000000001011 n7
b1111 n8
b00000000000000000000000001000 n9
b01011111 n10
b00000000000000000000000000001011 n12
b0000 n13
b00000000000000000000000001000 n14
b01011111 n15
b00000000000000000000000000001011 n17
b0000 n18
b00000000000000000000000001000 n19
b01011111 n20
b00000000000000000000000000001011 n22
b0000 n23
b00000000000000000000000001000 n24
#115
b0 n3
b0 n6
b0 n11
b0 n16
b0 n21
#120
1!
b00000000000000000000000000001100 t
b1 n3
b1 n6
b1 n11
b1 n16
b1 n21
b0 n0
b0 n1
b0 n2
b0 n4
b01011111 n5
b00000000000000000000000000001100 n7
b0000 n8
b00000000000000000000000000111 n9
b01011111 n10
b00000000000000000000000000001100 n12
b0000 n13
b00000000000000000000000000111 n14
b01011111 n15
b00000000000000000000000000001100 n17
b0000 n18
b00000000000000000000000000111 n19
b01011111 n20
b00000000000000000000000000001100 n22
b0000 n23
b00000000000000000000000000111 n24
#125
b0 n3
b0 n6
b0 n11
b0 n16
b0 n21
#130
1!
b00000000000000000000000000001101 t
b1 n3
b1 n6
b1 n11
b1 n16
b1 n21
b0 n0
b1 n1
b0 n2
b0 n4
b01011111 n5
b00000000000000000000000000001101 n7
b0000 n8
b00000000000000000000000000110 n9
b00101101 n10
b00000000000000000000000000001101 n12
b1111 n13
b00000000000000000000000000110 n14
b01011111 n15
b00000000000000000000000000001101 n17
b0000 n18
b00000000000000000000000000110 n19
b01011111 n20
b00000000000000000000000000001101 n22
b0000 n23
b00000000000000000000000000110 n24
#135
b0 n3
b0 n6
b0 n11
b0 n16
b0 n21
#140
1!
b00000000000000000000000000001110 t
b1 n3
b1 n6
b1 n11
b1 n16
b1 n21
